%YAML 1.1
%TAG !u! tag:unity3d.com,2011:
--- !u!114 &11400000
MonoBehaviour:
  m_ObjectHideFlags: 0
  m_CorrespondingSourceObject: {fileID: 0}
  m_PrefabInstance: {fileID: 0}
  m_PrefabAsset: {fileID: 0}
  m_GameObject: {fileID: 0}
  m_Enabled: 1
  m_EditorHideFlags: 0
  m_Script: {fileID: 11500000, guid: 32e45e1c5c381f449aca77fb9000d388, type: 3}
  m_Name: GoalCloseAndEnd
  m_EditorClassIdentifier: 
  tilePrefabs:
  - {fileID: 7503807791282348071, guid: 7d364111032d2f84f9c208840c025356, type: 3}
  - {fileID: 7503807791282348071, guid: 05a6da89f26e74e4c8307c4ae1a169a3, type: 3}
  - {fileID: 7503807791282348071, guid: 099585b1b7cd70046a52cff53ce10988, type: 3}
